{
  "LblErrorLT": "error <",
  "LblFrameNFocus": "Frame & Focus",
  "LblPlateSolveNbOfAttempts": "Number of Attempts",
  "LblPhd2SynchronizedServiceClientDisconnected": "Client disconnected to synchronized PHD2 service. \nConnected clients: {0}"
}
